<?xml version="1.0" encoding="UTF-8" standalone="no"?>
<svg
   xmlns:dc="http://purl.org/dc/elements/1.1/"
   xmlns:cc="http://creativecommons.org/ns#"
   xmlns:rdf="http://www.w3.org/1999/02/22-rdf-syntax-ns#"
   xmlns:svg="http://www.w3.org/2000/svg"
   xmlns="http://www.w3.org/2000/svg"
   viewBox="0 0 1024 1024"
   height="1024"
   width="1024"
   xml:space="preserve"
   version="1.1"
   id="svg2"><metadata
     id="metadata8"><rdf:RDF><cc:Work
         rdf:about=""><dc:format>image/svg+xml</dc:format><dc:type
           rdf:resource="http://purl.org/dc/dcmitype/StillImage" /><dc:title></dc:title></cc:Work></rdf:RDF></metadata><defs
     id="defs6" /><g
     transform="matrix(1.25,0,0,-1.25,0,1024)"
     id="g10"><g
       transform="translate(157.6795,157.6795)"
       id="g4149"><path
         id="path14"
         style="fill:#100f0d;fill-opacity:1;fill-rule:nonzero;stroke:none"
         d="m 251.921,503.841 c -68.418,0 -76.997,-0.29 -103.867,-1.516 C 121.24,501.102 102.927,496.843 86.9027,490.616 70.3367,484.178 56.2879,475.564 42.2824,461.559 28.2773,447.554 19.6633,433.504 13.2254,416.938 6.99805,400.914 2.73945,382.601 1.51563,355.787 0.289844,328.917 0,320.338 0,251.92 0,183.503 0.289844,174.924 1.51563,148.054 2.73945,121.24 6.99805,102.927 13.2254,86.9031 19.6633,70.3371 28.2773,56.2879 42.2824,42.282 56.2879,28.277 70.3367,19.6629 86.9027,13.225 102.927,6.99805 121.24,2.73906 148.054,1.51602 174.924,0.290234 183.503,0 251.921,0 c 68.417,0 76.996,0.290234 103.866,1.51602 26.814,1.22304 45.127,5.48203 61.151,11.70898 16.566,6.4379 30.615,15.052 44.621,29.057 14.005,14.0059 22.619,28.0551 29.057,44.6211 6.227,16.0239 10.486,34.3369 11.709,61.1509 1.226,26.87 1.516,35.449 1.516,103.866 0,68.418 -0.29,76.997 -1.516,103.867 -1.223,26.814 -5.482,45.127 -11.709,61.151 -6.438,16.566 -15.052,30.616 -29.057,44.621 -14.006,14.005 -28.055,22.619 -44.621,29.057 -16.024,6.227 -34.337,10.486 -61.151,11.709 -26.87,1.226 -35.449,1.516 -103.866,1.516 l 0,0 z m 0,-45.391 c 67.265,0 75.233,-0.257 101.797,-1.469 24.562,-1.12 37.901,-5.224 46.778,-8.674 11.759,-4.57 20.151,-10.029 28.966,-18.844 8.816,-8.816 14.275,-17.208 18.845,-28.967 3.45,-8.877 7.554,-22.216 8.674,-46.778 1.212,-26.564 1.469,-34.532 1.469,-101.798 0,-67.265 -0.257,-75.233 -1.469,-101.797 -1.12,-24.562 -5.224,-37.901 -8.674,-46.778 -4.57,-11.7591 -10.029,-20.1509 -18.845,-28.9661 -8.815,-8.816 -17.207,-14.275 -28.966,-18.8449 -8.877,-3.45 -22.216,-7.5539 -46.778,-8.6738 -26.56,-1.2122 -34.527,-1.4692 -101.797,-1.4692 -67.271,0 -75.237,0.257 -101.798,1.4692 -24.562,1.1199 -37.901,5.2238 -46.778,8.6738 -11.7591,4.5699 -20.1509,10.0289 -28.9661,18.8449 -8.8152,8.8152 -14.275,17.207 -18.8449,28.9661 -3.45,8.877 -7.5535,22.216 -8.6742,46.778 -1.2121,26.564 -1.4688,34.532 -1.4688,101.797 0,67.266 0.2567,75.234 1.4688,101.798 1.1207,24.562 5.2242,37.901 8.6742,46.778 4.5699,11.759 10.0293,20.151 18.8445,28.966 8.8156,8.816 17.2074,14.275 28.9665,18.845 8.877,3.45 22.216,7.554 46.778,8.674 26.564,1.212 34.532,1.469 101.798,1.469" /><path
         id="path16"
         style="fill:#100f0d;fill-opacity:1;fill-rule:nonzero;stroke:none"
         d="m 251.921,167.947 c -46.378,0 -83.974,37.596 -83.974,83.973 0,46.378 37.596,83.974 83.974,83.974 46.377,0 83.973,-37.596 83.973,-83.974 0,-46.377 -37.596,-83.973 -83.973,-83.973 z m 0,213.338 c -71.447,0 -129.365,-57.918 -129.365,-129.365 0,-71.446 57.918,-129.364 129.365,-129.364 71.446,0 129.364,57.918 129.364,129.364 0,71.447 -57.918,129.365 -129.364,129.365" /><path
         id="path18"
         style="fill:#100f0d;fill-opacity:1;fill-rule:nonzero;stroke:none"
         d="m 416.627,386.396 c 0,-16.696 -13.535,-30.23 -30.231,-30.23 -16.695,0 -30.23,13.534 -30.23,30.23 0,16.696 13.535,30.231 30.23,30.231 16.696,0 30.231,-13.535 30.231,-30.231" /></g></g></svg>