<?xml version="1.0" encoding="UTF-8" standalone="no"?>
<svg
   xmlns:dc="http://purl.org/dc/elements/1.1/"
   xmlns:cc="http://creativecommons.org/ns#"
   xmlns:rdf="http://www.w3.org/1999/02/22-rdf-syntax-ns#"
   xmlns:svg="http://www.w3.org/2000/svg"
   xmlns="http://www.w3.org/2000/svg"
   xmlns:sodipodi="http://sodipodi.sourceforge.net/DTD/sodipodi-0.dtd"
   xmlns:inkscape="http://www.inkscape.org/namespaces/inkscape"
   width="414.96pt"
   height="414.96pt"
   viewBox="0 0 414.96 414.96"
   version="1.1"
   id="svg2"
   inkscape:version="0.91 r13725"
   sodipodi:docname="vk.svg">
  <metadata
     id="metadata13">
    <rdf:RDF>
      <cc:Work
         rdf:about="">
        <dc:format>image/svg+xml</dc:format>
        <dc:type
           rdf:resource="http://purl.org/dc/dcmitype/StillImage" />
        <dc:title></dc:title>
      </cc:Work>
    </rdf:RDF>
  </metadata>
  <defs
     id="defs11" />
  <sodipodi:namedview
     pagecolor="#ffffff"
     bordercolor="#666666"
     borderopacity="1"
     objecttolerance="10"
     gridtolerance="10"
     guidetolerance="10"
     inkscape:pageopacity="0"
     inkscape:pageshadow="2"
     inkscape:window-width="1143"
     inkscape:window-height="643"
     id="namedview9"
     showgrid="false"
     inkscape:zoom="0.45498362"
     inkscape:cx="259.14728"
     inkscape:cy="259.42131"
     inkscape:window-x="0"
     inkscape:window-y="24"
     inkscape:window-maximized="0"
     inkscape:current-layer="svg2" />
  <g
     id="surface246">
    <path
       style=" stroke:none;fill-rule:evenodd;fill:rgb(29.808044%,43.606567%,63.505554%);fill-opacity:1;"
       d="M 63.941406 0 L 351.015625 0 C 386.328125 0 414.960938 28.628906 414.960938 63.941406 L 414.960938 351.019531 C 414.960938 386.332031 386.328125 414.960938 351.015625 414.960938 L 63.941406 414.960938 C 28.628906 414.960938 0 386.332031 0 351.019531 L 0 63.941406 C 0 28.628906 28.628906 0 63.941406 0 "
       id="path5" />
    <path
       style=" stroke:none;fill-rule:nonzero;fill:rgb(100%,100%,100%);fill-opacity:1;"
       d="M 301.476562 210.9375 C 301.476562 210.9375 337.332031 160.359375 340.894531 143.738281 C 342.082031 137.800781 339.46875 134.476562 333.292969 134.476562 C 333.292969 134.476562 312.636719 134.476562 302.1875 134.476562 C 295.0625 134.476562 292.453125 137.5625 290.316406 142.074219 C 290.316406 142.074219 273.496094 177.910156 253.035156 200.488281 C 246.464844 207.789062 243.125 209.988281 239.5 209.988281 C 236.574219 209.988281 235.226562 207.550781 235.226562 200.964844 L 235.226562 143.261719 C 235.226562 135.1875 234.273438 132.8125 227.628906 132.8125 L 177.761719 132.8125 C 173.960938 132.8125 171.585938 135.023438 171.585938 138.035156 C 171.585938 145.640625 183.222656 147.355469 183.222656 167.957031 L 183.222656 210.460938 C 183.222656 219.011719 182.746094 222.335938 178.710938 222.335938 C 168.023438 222.335938 142.617188 185.53125 128.371094 143.738281 C 125.519531 135.1875 122.433594 132.8125 114.359375 132.8125 L 83.253906 132.8125 C 78.742188 132.8125 75.417969 135.898438 75.417969 140.410156 C 75.417969 148.722656 85.152344 187.191406 123.382812 238.71875 C 149.027344 273.386719 182.746094 292.148438 213.140625 292.148438 C 231.664062 292.148438 236.175781 289.0625 236.175781 281.222656 L 236.175781 254.628906 C 236.175781 247.980469 238.785156 245.132812 242.585938 245.132812 C 246.859375 245.132812 254.402344 246.503906 272.03125 263.890625 C 292.925781 283.835938 294.351562 292.148438 305.75 292.148438 L 340.65625 292.148438 C 344.21875 292.148438 347.542969 290.484375 347.542969 284.550781 C 347.542969 276.710938 337.332031 262.703125 321.660156 246.078125 C 315.246094 237.53125 304.800781 228.273438 301.476562 223.996094 C 296.726562 219.011719 298.152344 216.160156 301.476562 210.9375 "
       id="path7" />
  </g>
</svg>
