{
    "name": "vk",
    "displayName": "VK",
    "icon": "qrc:/vk/icon.svg",
    "optionComponents": [
        "qrc:/vk/GroupSelector.qml",
        "qrc:/vk/AlbumSelector.qml",
        "qrc:/Photokinesis/Ui/SizeControl.qml"
    ],
    "supportedOptions": [ "title", "description", "tags", "albums" ]
}
