<?xml version="1.0" encoding="UTF-8" standalone="no"?>
<svg
   xmlns:dc="http://purl.org/dc/elements/1.1/"
   xmlns:cc="http://creativecommons.org/ns#"
   xmlns:rdf="http://www.w3.org/1999/02/22-rdf-syntax-ns#"
   xmlns:svg="http://www.w3.org/2000/svg"
   xmlns="http://www.w3.org/2000/svg"
   viewBox="0 0 48 48"
   height="48"
   width="48"
   xml:space="preserve"
   version="1.1"
   id="svg2"><metadata
     id="metadata8"><rdf:RDF><cc:Work
         rdf:about=""><dc:format>image/svg+xml</dc:format><dc:type
           rdf:resource="http://purl.org/dc/dcmitype/StillImage" /><dc:title></dc:title></cc:Work></rdf:RDF></metadata><defs
     id="defs6" /><g
     transform="matrix(1.25,0,0,-1.25,0,48)"
     id="g10"><g
       transform="matrix(1.2782609,0,0,1.2782609,-8.4074993,-4.5496454)"
       id="g4179"><path
         id="path22"
         style="fill:#ee2b24;fill-opacity:1;fill-rule:nonzero;stroke:none"
         d="m 24.010203,26.131979 -5.929,0 c -0.943,0 -1.708,-0.766 -1.708,-1.7051 l 0,-6.434 -5.849,0 0,6.434 c 0,4.1731 3.381,7.5528 7.557,7.5528 l 5.929,0 0,-5.8477" /><path
         id="path24"
         style="fill:#ee2b24;fill-opacity:1;fill-rule:nonzero;stroke:none"
         d="m 19.184203,11.029239 5.933,0 c 0.939,0 1.706,0.76445 1.706,1.70703 l 0,6.43121 5.848,0 0,-6.43121 c 0,-4.1730497 -3.382,-7.5566397 -7.554,-7.5566397 l -5.933,0 0,5.8496097" /></g></g></svg>